2020,Beer,Presidente """Never Left""", "Features Alex Rodriguez, co-owner and chairman of the brand, where he goes back to Miami where he grew up."
2020,Car,Audi e-tron Sportback """Let it Go""", "Maisie Williams is stuck in a traffic jam surrounded by old vehicles. Singing ""Let It Go"", she passes by lowriders, a repair shop and a gas station, leaving the fossil-fuel world behind.[220]"
2020,Car,Hyundai Sonata """Smaht Pahk""", "John Krasinski demonstrates the new ""Remote Smart Parking Assist"" feature of his Hyundai Sonata, which he refers to in a thick Boston accent as ""smaht pahk"". The ad also features appearances by fellow Bostonians Rachel Dratch, Chris Evans, and Boston Red Sox player David Ortiz.[221]"
2020,Car,Genesis GV80 """Going Away Party""", "Chrissy Teigen throws a ""going-away party"" for ""old luxury"", in favor of ""young luxury"", symbolized by John Legend and a Genesis GV80.[222]"
2020,Car,GMC Hummer EV """Quiet Revolution""", "Several scenes teasing aspects of the electric truck are followed by similar scenes in absolute silence, concluding with LeBron James sinking a slam dunk that smashes the backboard glass.[223]"
2020,Car,Jeep """Groundhog Day""", "Groundhog Day commercial featuring Bill Murray as his character for the movie, meeting with Punxsutawney Phil again as he is currently in the time loop again; they enjoy 2/2/2020 with the Jeep Gladiator.[224]"
2020,Car,Kia Seltos """Tough Never Quits""" ,"Rookie Josh Jacobs returns to his hometown of Tulsa, Oklahoma offering advice and inspiration to his younger self to overcome the challenges he faced on his path to the NFL.[225]"
2020,Car,Toyota Highlander """Heroes""", "Driving a Toyota Highlander, Cobie Smulders saves the day in various movie tropes including a biological disaster, a western and an alien invasion with room to spare.[226]"
2020,Car,Porsche Taycan """The Heist""", "Security professionals are alerted when the Porsche Taycan is stolen from an exhibit at the Porsche museum; in the ensuing chase numerous vehicles are used such as a 911 Carrera S, a 917 K and a 918 Spyder.[227]"
2020,Film,F9  Trailer
2020,Film,The Invisible Man  Trailer
2020,Film,Mulan  Trailer
2020,Food,Doritos """The Cool Ranch""", "Lil Nas X and Sam Elliott participate in a dance showdown to ""Old Town Road"".[228]"
2020,Food,Planters """Tribute""", "Following his death in a previous ad, Mr. Peanut returns to life as a newborn child after the Kool-Aid Man's tears drip onto his grave.[229][230]"
2020,Food,Pop-Tarts Pretzel """Pop-Tarts Fixed the Pretzel""", "Jonathan Van Ness serves as spokesperson for Pop-Tarts Pretzel, promoting it as an alternative to ""boring"" pretzels[231]"
2020,"Food, TV series","Pringles, Rick and Morty","After Morty enthusiastically enters the living room to promote various Pringles products, Rick exposes him as being a robot, and realizes he is trapped in a Pringles commercial.[232]"
2020,Website,Facebook,  "Facebook groups ""Ready to Rock"" featuring different groups with the word rock in it. Surprisingly featuring Chris Rock and Sylvester Stallone known for his character Rocky Balboa in it."